{
    "count": 765,
    "next": "http://127.0.0.1:8000/api/houses/?limit=10&offset=10&unom_houses=12345",
    "previous": null,
    "results": [
        {
            "id": 8,
            "address": "Открытое шоссе, дом 19А",
            "coordinates": "[[37.750506009, 55.824070657], [37.750402725, 55.824080849], [37.750428072, 55.82416265], [37.75046635, 55.824285754], [37.750477213, 55.824320237], [37.750580484, 55.824310045], [37.75055721, 55.824235678], [37.750596012, 55.82423199], [37.750584331, 55.824185099], [37.750634463, 55.824180945], [37.750623154, 55.824147031], [37.750532386, 55.824155017], [37.750506009, 55.824070657]]",
            "type_object": "Прочее",
            "administrative_district": "Восточный административный округ",
            "municipal_district": "муниципальный округ Метрогородок",
            "house_number": "19А",
            "street": "Открытое шоссе",
            "unom": 2109349,
            "unom_houses": "[18098, 18099, 18100, 18101, 18102, 2109359, 18119, 18120, 18123, 2109262]"
        },
        {
            "id": 42,
            "address": "Байкальская улица, дом 44, корпус 2, строение 1",
            "coordinates": "[[37.815439872, 55.816404034], [37.815440331, 55.816394372], [37.815442344, 55.816347662], [37.8154232, 55.816347262], [37.815368954, 55.816346054], [37.815182505, 55.816344079], [37.815180089, 55.816372969], [37.815177996, 55.816404027], [37.81543965, 55.816408744], [37.815439872, 55.816404034]]",
            "type_object": "ЦТП",
            "administrative_district": "Восточный административный округ",
            "municipal_district": "муниципальный округ Гольяново",
            "house_number": "44",
            "street": "Байкальская улица",
            "unom": 2400994,
            "unom_houses": "[1255, 1257, 1262, 1262, 16887]"
        },
        {
            "id": 43,
            "address": "Сиреневый бульвар, дом 27, строение 1",
            "coordinates": "[[37.796195221, 55.804199818], [37.7960671, 55.804197846], [37.796055987, 55.804405584], [37.796186666, 55.80440826], [37.796188785, 55.80435326], [37.796195221, 55.804199818]]",
            "type_object": "ЦТП",
            "administrative_district": "Восточный административный округ",
            "municipal_district": "муниципальный округ Северное Измайлово",
            "house_number": "27",
            "street": "Сиреневый бульвар",
            "unom": 2115314,
            "unom_houses": "[18690, 18691, 18692, 18695, 18696, 18739, 18740, 18741, 18742, 23751, 23752, 23753, 23754, 23757, 23758, 27141, 27142, 2116253, 27139]"
        },
        {
            "id": 62,
            "address": "5-я улица Соколиной Горы, дом 19, корпус 1",
            "coordinates": "[[37.736189891, 55.764110081], [37.736401206, 55.763885581], [37.736582326, 55.763936428], [37.736693917, 55.763817655], [37.736164139, 55.763671374], [37.736077851, 55.76375956], [37.7361728, 55.763786772], [37.736092886, 55.763874947], [37.7360115, 55.763851751], [37.73596641, 55.763903482], [37.736045409, 55.763927132], [37.735947289, 55.764034652], [37.736189891, 55.764110081]]",
            "type_object": "Прочее",
            "administrative_district": "Восточный административный округ",
            "municipal_district": "муниципальный округ Соколиная Гора",
            "house_number": "19",
            "street": "5-я улица Соколиной Горы",
            "unom": 24148,
            "unom_houses": "[24148, 24149, 24149]"
        },
        {
            "id": 67,
            "address": "Халтуринская улица, дом 15, строение 1",
            "coordinates": "[[37.723224962, 55.802863091], [37.723480376, 55.802904825], [37.72351443, 55.802838892], [37.723259016, 55.802797149], [37.723224962, 55.802863091]]",
            "type_object": "ЦТП",
            "administrative_district": "Восточный административный округ",
            "municipal_district": "муниципальный округ Преображенское",
            "house_number": "15",
            "street": "Халтуринская улица",
            "unom": 2401738,
            "unom_houses": "[8468, 8469, 27764, 27766, 27772, 27773]"
        },
        {
            "id": 84,
            "address": "Борисовская улица, дом 10А",
            "coordinates": "[[37.736901319, 55.787800539], [37.736867887, 55.788044705], [37.737078485, 55.788053992], [37.737089153, 55.787978117], [37.737108546, 55.787836636], [37.737125988, 55.787709991], [37.737138572, 55.787615861], [37.736927975, 55.787606575], [37.736901319, 55.787800539]]",
            "type_object": "Прочее",
            "administrative_district": "Восточный административный округ",
            "municipal_district": "муниципальный округ Соколиная Гора",
            "house_number": "10А",
            "street": "Борисовская улица",
            "unom": 2493,
            "unom_houses": "[2493, 2494]"
        },
        {
            "id": 111,
            "address": "улица Чечулина, дом 26, строение 2",
            "coordinates": "[[37.835065636, 55.781705652], [37.835390058, 55.781770928], [37.835460044, 55.781670351], [37.835127529, 55.781605105], [37.835065636, 55.781705652]]",
            "type_object": "ЦТП",
            "administrative_district": "Восточный административный округ",
            "municipal_district": "муниципальный округ Ивановское",
            "house_number": "26",
            "street": "улица Чечулина",
            "unom": 2501161,
            "unom_houses": "[12182, 12183, 12184, 28959, 2115697, 28423]"
        },
        {
            "id": 114,
            "address": "Сахалинская улица, дом 5, корпус 1, строение 1",
            "coordinates": "[[37.814319339, 55.825926869], [37.814542305, 55.825933139], [37.814552495, 55.825817352], [37.81432956, 55.825811063], [37.814319339, 55.825926869]]",
            "type_object": "Прочее",
            "administrative_district": "Восточный административный округ",
            "municipal_district": "муниципальный округ Гольяново",
            "house_number": "5",
            "street": "Сахалинская улица",
            "unom": 2103963,
            "unom_houses": "[2114472, 22755, 22748, 22749, 22752, 22753, 26892]"
        },
        {
            "id": 147,
            "address": "Егерская улица, дом 5, корпус 1, строение 1",
            "coordinates": "[[37.684091545, 55.79419776], [37.683883834, 55.794161574], [37.683823603, 55.794271734], [37.684031312, 55.794307928], [37.684091545, 55.79419776]]",
            "type_object": "ЦТП",
            "administrative_district": "Восточный административный округ",
            "municipal_district": "муниципальный округ Сокольники",
            "house_number": "5",
            "street": "Егерская улица",
            "unom": 2400675,
            "unom_houses": "[7376, 7377, 2404753, 7379, 7378, 2114299]"
        },
        {
            "id": 164,
            "address": "Вешняковская улица, дом 26, корпус 2, строение 3",
            "coordinates": "[[37.818899039, 55.718369245], [37.819007025, 55.718478469], [37.819199029, 55.7184178], [37.819091012, 55.718308575], [37.818899039, 55.718369245]]",
            "type_object": "ЦТП",
            "administrative_district": "Восточный административный округ",
            "municipal_district": "муниципальный округ Вешняки",
            "house_number": "26",
            "street": "Вешняковская улица",
            "unom": 2501639,
            "unom_houses": "[3803, 3806, 3807, 3813, 3814, 11750]"
        }
    ]
}
