{
    "count": 486,
    "next": "http://127.0.0.1:8000/api/houses/?limit=10&offset=20&street=%D0%9A%D0%BE%D1%81%D0%B8%D0%BD%D1%81%D0%BA%D0%B0%D1%8F+%D1%83%D0%BB%D0%B8%D1%86%D0%B0",
    "previous": "http://127.0.0.1:8000/api/houses/?limit=10&street=%D0%9A%D0%BE%D1%81%D0%B8%D0%BD%D1%81%D0%BA%D0%B0%D1%8F+%D1%83%D0%BB%D0%B8%D1%86%D0%B0",
    "results": [
        {
            "id": 475,
            "address": "Большая Косинская улица, дом 63",
            "coordinates": "[[37.856546045, 55.722287539], [37.856340318, 55.722201095], [37.856372849, 55.722177574], [37.856305263, 55.722148957], [37.856258312, 55.722182885], [37.85622735, 55.722176879], [37.856203978, 55.722194107], [37.856218206, 55.722211866], [37.856200165, 55.722224903], [37.856231284, 55.722238297], [37.856219779, 55.722246744], [37.856251968, 55.722260275], [37.856263806, 55.72225207], [37.856291178, 55.722263755], [37.856272129, 55.722277783], [37.856365459, 55.722318004], [37.856384509, 55.722303977], [37.856472286, 55.722341934], [37.856546045, 55.722287539]]",
            "type_object": "Прочее",
            "administrative_district": "Восточный административный округ",
            "municipal_district": "муниципальный округ Косино-Ухтомский",
            "house_number": "63",
            "street": "Большая Косинская улица",
            "unom": 50153
        },
        {
            "id": 485,
            "address": "Большая Косинская улица, дом 160А, корпус 5",
            "coordinates": "[[37.852044831, 55.726451224], [37.852184051, 55.72651863], [37.852224501, 55.726491882], [37.852242149, 55.726494266], [37.85226905, 55.726477231], [37.852264301, 55.726462719], [37.85224632, 55.726454093], [37.852363115, 55.726377565], [37.852381096, 55.726386191], [37.852404797, 55.726387295], [37.852429803, 55.726372608], [37.852425864, 55.726358598], [37.852499307, 55.726313056], [37.852517961, 55.726313548], [37.852543856, 55.726298405], [37.852539108, 55.726283893], [37.852517735, 55.726275179], [37.852635258, 55.726200108], [37.852651582, 55.72620821], [37.852676209, 55.726208379], [37.852702104, 55.726193236], [37.852692233, 55.72618177], [37.852735025, 55.72615478], [37.852601039, 55.726086819], [37.852564651, 55.726108573], [37.852543766, 55.726098749], [37.852500126, 55.726129061], [37.852544392, 55.726150081], [37.852526717, 55.726160917], [37.852501601, 55.726150481], [37.852422536, 55.726203617], [37.852447554, 55.726215033], [37.852429114, 55.726226808], [37.852382222, 55.726206592], [37.852339256, 55.726234512], [37.852361199, 55.72624483], [37.852295703, 55.726288512], [37.852272753, 55.726278317], [37.852226939, 55.726308281], [37.852273547, 55.726329573], [37.85225806, 55.726340161], [37.852229779, 55.726328726], [37.852147297, 55.726383671], [37.852172337, 55.726395021], [37.852155965, 55.726406157], [37.852111326, 55.726386694], [37.852067644, 55.726415819], [37.852085625, 55.726424445], [37.852044831, 55.726451224]]",
            "type_object": "Прочее",
            "administrative_district": "Восточный административный округ",
            "municipal_district": "муниципальный округ Косино-Ухтомский",
            "house_number": "160А",
            "street": "Большая Косинская улица",
            "unom": 260005
        },
        {
            "id": 548,
            "address": "Большая Косинская улица, дом 8А",
            "coordinates": "[[37.853644638, 55.707261051], [37.853948631, 55.70726448], [37.853987156, 55.707223834], [37.853988005, 55.707166067], [37.853983393, 55.707156751], [37.853977335, 55.707153308], [37.853964111, 55.707150511], [37.853920189, 55.707149268], [37.853919647, 55.707138755], [37.85386508, 55.707137945], [37.85386481, 55.707147685], [37.853806132, 55.707146624], [37.85380636, 55.707135435], [37.853370121, 55.707130777], [37.853366657, 55.707215487], [37.853643874, 55.707218363], [37.853644638, 55.707261051]]",
            "type_object": "Прочее",
            "administrative_district": "Восточный административный округ",
            "municipal_district": "муниципальный округ Косино-Ухтомский",
            "house_number": "8А",
            "street": "Большая Косинская улица",
            "unom": 2600891
        },
        {
            "id": 555,
            "address": "Большая Косинская улица, дом 60",
            "coordinates": "[[37.858922104, 55.720174027], [37.859083873, 55.720183821], [37.859092049, 55.720140164], [37.858930283, 55.720130374], [37.858922104, 55.720174027]]",
            "type_object": "Прочее",
            "administrative_district": "Восточный административный округ",
            "municipal_district": "муниципальный округ Косино-Ухтомский",
            "house_number": "60",
            "street": "Большая Косинская улица",
            "unom": 11151
        },
        {
            "id": 571,
            "address": "Большая Косинская улица, дом 26А",
            "coordinates": "[[37.856516579, 55.715782237], [37.856674629, 55.715717046], [37.856642048, 55.715691762], [37.856600777, 55.715708705], [37.8565789, 55.715691655], [37.856606577, 55.715680172], [37.856581663, 55.715660565], [37.85651222, 55.715689283], [37.856537133, 55.715708604], [37.856461655, 55.715739909], [37.856516579, 55.715782237]]",
            "type_object": "Прочее",
            "administrative_district": "Восточный административный округ",
            "municipal_district": "муниципальный округ Косино-Ухтомский",
            "house_number": "26А",
            "street": "Большая Косинская улица",
            "unom": 50134
        },
        {
            "id": 583,
            "address": "Большая Косинская улица, дом 137",
            "coordinates": "[[37.850215215, 55.72556784], [37.850227891, 55.72557408], [37.85042282, 55.725449186], [37.850455988, 55.725428563], [37.850428069, 55.725414096], [37.85044918, 55.725400917], [37.850401968, 55.725376813], [37.850346697, 55.725411191], [37.850277166, 55.725376883], [37.850204811, 55.725423003], [37.850173339, 55.725407409], [37.850137176, 55.725430327], [37.850169647, 55.725446488], [37.850132994, 55.725469976], [37.850160907, 55.725483869], [37.850110653, 55.725516238], [37.850091888, 55.725506881], [37.850065743, 55.725523778], [37.850188574, 55.725585029], [37.850215215, 55.72556784]]",
            "type_object": "Прочее",
            "administrative_district": "Восточный административный округ",
            "municipal_district": "муниципальный округ Косино-Ухтомский",
            "house_number": "137",
            "street": "Большая Косинская улица",
            "unom": 50206
        },
        {
            "id": 627,
            "address": "Большая Косинская улица, дом 38",
            "coordinates": "[[37.859110916, 55.718342094], [37.859150887, 55.718457759], [37.859177123, 55.718454831], [37.859182833, 55.718470783], [37.859214127, 55.718467271], [37.859217226, 55.718476384], [37.859262151, 55.718471406], [37.859234659, 55.718391637], [37.859266451, 55.718388123], [37.859256078, 55.718358497], [37.859272222, 55.718356736], [37.859256134, 55.7183103], [37.859175379, 55.718319092], [37.859180555, 55.718334479], [37.859110916, 55.718342094]]",
            "type_object": "Прочее",
            "administrative_district": "Восточный административный округ",
            "municipal_district": "муниципальный округ Косино-Ухтомский",
            "house_number": "38",
            "street": "Большая Косинская улица",
            "unom": 50142
        },
        {
            "id": 646,
            "address": "Косинская улица, дом 17",
            "coordinates": "[[37.826668367, 55.713941336], [37.82664239, 55.713917065], [37.82647676, 55.713973821], [37.826502896, 55.713998003], [37.826668367, 55.713941336]]",
            "type_object": "Прочее",
            "administrative_district": "Восточный административный округ",
            "municipal_district": "муниципальный округ Вешняки",
            "house_number": "17",
            "street": "Косинская улица",
            "unom": 2502376
        },
        {
            "id": 657,
            "address": "Косинская улица, дом 15",
            "coordinates": "[[37.829452156, 55.713234642], [37.829620361, 55.7131753], [37.829546846, 55.713108574], [37.829287804, 55.71319866], [37.829370072, 55.713275046], [37.829385072, 55.713282143], [37.829398821, 55.713284708], [37.829414605, 55.713284887], [37.829428097, 55.713282232], [37.82944118, 55.713277896], [37.829454197, 55.713271925], [37.829462986, 55.713264806], [37.829465605, 55.7132569], [37.829462205, 55.713247822], [37.829452156, 55.713234642]]",
            "type_object": "Прочее",
            "administrative_district": "Восточный административный округ",
            "municipal_district": "муниципальный округ Вешняки",
            "house_number": "15",
            "street": "Косинская улица",
            "unom": 2600956
        },
        {
            "id": 719,
            "address": "Большая Косинская улица, дом 18А, строение 8",
            "coordinates": "[[37.857231224, 55.710489669], [37.857227895, 55.710473601], [37.857151276, 55.71048038], [37.85714798, 55.710467815], [37.857034954, 55.710477305], [37.857045335, 55.710516616], [37.857158361, 55.710507126], [37.857155391, 55.710495458], [37.857231224, 55.710489669]]",
            "type_object": "Прочее",
            "administrative_district": "Восточный административный округ",
            "municipal_district": "муниципальный округ Косино-Ухтомский",
            "house_number": "18А",
            "street": "Большая Косинская улица",
            "unom": 2401198
        }
    ]
}
